mc16_13TeV:mc16_13TeV.301322.Pythia8EvtGen_A14NNPDF23LO_zprime400_tt.deriv.DAOD_FTAG5.e4061_e5984_a875_r9364_r9315_p3452
mc16_13TeV:mc16_13TeV.301323.Pythia8EvtGen_A14NNPDF23LO_zprime500_tt.deriv.DAOD_FTAG5.e4061_e5984_a875_r9364_r9315_p3452
mc16_13TeV:mc16_13TeV.301324.Pythia8EvtGen_A14NNPDF23LO_zprime750_tt.deriv.DAOD_FTAG5.e4061_e5984_a875_r9364_r9315_p3452
mc16_13TeV:mc16_13TeV.301325.Pythia8EvtGen_A14NNPDF23LO_zprime1000_tt.deriv.DAOD_FTAG5.e4061_e5984_a875_r9364_r9315_p3452
mc16_13TeV:mc16_13TeV.301326.Pythia8EvtGen_A14NNPDF23LO_zprime1250_tt.deriv.DAOD_FTAG5.e4061_e5984_a875_r9364_r9315_p3452
mc16_13TeV:mc16_13TeV.301327.Pythia8EvtGen_A14NNPDF23LO_zprime1500_tt.deriv.DAOD_FTAG5.e4061_e5984_a875_r9364_r9315_p3452
mc16_13TeV:mc16_13TeV.301328.Pythia8EvtGen_A14NNPDF23LO_zprime1750_tt.deriv.DAOD_FTAG5.e4061_e5984_a875_r9364_r9315_p3452
mc16_13TeV:mc16_13TeV.301329.Pythia8EvtGen_A14NNPDF23LO_zprime2000_tt.deriv.DAOD_FTAG5.e4061_e5984_a875_r9364_r9315_p3452
mc16_13TeV:mc16_13TeV.301330.Pythia8EvtGen_A14NNPDF23LO_zprime2250_tt.deriv.DAOD_FTAG5.e4061_e5984_a875_r9364_r9315_p3452
mc16_13TeV:mc16_13TeV.301331.Pythia8EvtGen_A14NNPDF23LO_zprime2500_tt.deriv.DAOD_FTAG5.e4061_e5984_a875_r9364_r9315_p3452
mc16_13TeV:mc16_13TeV.301332.Pythia8EvtGen_A14NNPDF23LO_zprime2750_tt.deriv.DAOD_FTAG5.e4061_e5984_a875_r9364_r9315_p3452
mc16_13TeV:mc16_13TeV.301333.Pythia8EvtGen_A14NNPDF23LO_zprime3000_tt.deriv.DAOD_FTAG5.e3723_e5984_a875_r9364_r9315_p3452
mc16_13TeV:mc16_13TeV.301334.Pythia8EvtGen_A14NNPDF23LO_zprime4000_tt.deriv.DAOD_FTAG5.e3723_e5984_a875_r9364_r9315_p3452
mc16_13TeV:mc16_13TeV.301335.Pythia8EvtGen_A14NNPDF23LO_zprime5000_tt.deriv.DAOD_FTAG5.e3723_e5984_a875_r9364_r9315_p3452
